{
    "AudioToolbox.framework": 3,
    "AVFoundation.framework": 3,
    "libsqlite3.dylib": 1,
    "libz.dylib": 2,
    "libiconv.dylib": 2,
    "libc++.dylib": 1,
    "Security.framework": 1,
    "libxml2.dylib": 1,
    "CoreVideo.framework": 1,
    "AddressBook.framework": 1,
    "libsqlite3.tbd": 1,
    "MapKit.framework": 1,
    "Accelerate.framework": 1,
    "CoreData.framework": 1,
    "CoreLocation.framework": 1,
    "CoreTelephony.framework": 1,
    "CoreText.framework": 1,
    "CoreImage.framework": 1,
    "GLKit.framework": 1,
    "ImageIO.framework": 1,
    "libc++.tbd": 1,
    "libz.tbd": 1,
    "OpenGLES.framework": 1,
    "QuartzCore.framework": 1,
    "SystemConfiguration.framework": 1,
    "UIKit.framework": 1
}